<?xml version="1.0" encoding="utf-8"?>
<!-- Generator: Adobe Illustrator 19.0.0, SVG Export Plug-In . SVG Version: 6.00 Build 0)  -->
<svg version="1.1" id="Capa_1" xmlns="http://www.w3.org/2000/svg" xmlns:xlink="http://www.w3.org/1999/xlink" x="0px" y="0px"
	 viewBox="0 0 150 150" style="enable-background:new 0 0 150 150;" xml:space="preserve">
<style type="text/css">
	.st0{fill:#FFFFFF;stroke:#000000;stroke-width:1.7498;stroke-miterlimit:10;}
	.st1{fill:none;stroke:#000000;stroke-width:1.8594;stroke-miterlimit:10;}
	.st2{fill:#FFFFFF;stroke:#000000;stroke-width:1.8594;stroke-miterlimit:10;}
	.st3{fill:#FFFFFF;}
</style>
<g id="XMLID_272_">
	<g id="XMLID_268_">
		<path id="XMLID_241_" class="st0" d="M55.2,90.7l34.6,14.1c2.3,0.9,5-0.2,5.9-2.5l18.6-45.6c0.9-2.3-0.2-5-2.5-5.9L84.3,39.7
			l-7.3-3c-2.2-0.9-4.8,0.2-5.7,2.4l-2.8,7L52.7,84.8C51.7,87.1,52.8,89.8,55.2,90.7z"/>
		<g id="XMLID_267_">
			<path id="XMLID_51_" class="st0" d="M94.8,90.7l-34.6,14.1c-2.3,0.9-5-0.2-5.9-2.5L35.8,56.8c-0.9-2.3,0.2-5,2.5-5.9l27.4-11.2
				l7.3-3c2.2-0.9,4.8,0.2,5.7,2.4l2.8,7l15.8,38.8C98.3,87.1,97.2,89.8,94.8,90.7z"/>
			<line id="XMLID_266_" class="st1" x1="41" y1="55.3" x2="58.7" y2="48.4"/>
			<line id="XMLID_265_" class="st1" x1="44.1" y1="63.5" x2="69.2" y2="53.7"/>
			<line id="XMLID_243_" class="st1" x1="47.3" y1="71.6" x2="82.3" y2="58"/>
		</g>
		<g id="XMLID_240_">
			<path id="XMLID_52_" class="st2" d="M95.4,98H55.7c-2.7,0-4.8-2.2-4.8-4.8V40.9c0-2.7,2.2-4.8,4.8-4.8h31.5l6.7,6.4l6.4,6.3v44.5
				C100.3,95.8,98.1,98,95.4,98z"/>
			<path id="XMLID_53_" class="st1" d="M99.6,48.5l-11.1,0.2c-0.8,0-1.4-0.6-1.4-1.4l0-10c0-0.5,0.6-0.8,1-0.4l11.7,11.3
				C99.9,48.2,99.8,48.5,99.6,48.5z"/>
		</g>
		<line id="XMLID_242_" class="st1" x1="56.6" y1="45.1" x2="75.6" y2="45.1"/>
		<line id="XMLID_260_" class="st1" x1="56.6" y1="53.8" x2="83.5" y2="53.8"/>
		<line id="XMLID_261_" class="st1" x1="56.6" y1="62.5" x2="94.2" y2="62.5"/>
		<line id="XMLID_262_" class="st1" x1="56.6" y1="71.2" x2="94.2" y2="71.2"/>
		<line id="XMLID_263_" class="st1" x1="56.6" y1="80" x2="94.2" y2="80"/>
		<line id="XMLID_264_" class="st1" x1="56.6" y1="88.7" x2="94.2" y2="88.7"/>
	</g>
	<g id="XMLID_282_">
		<circle id="XMLID_269_" class="st3" cx="52.3" cy="96.5" r="11.2"/>
		<path id="XMLID_325_" class="st2" d="M50.5,113.9c-0.4,0-0.8-0.1-1.1-0.1c-0.3,0-0.4-0.2-0.5-0.5c-0.3-1.2-0.6-2.3-0.9-3.4
			c-0.1-0.2-0.2-0.4-0.4-0.5c-1.5-0.5-2.9-1.3-4.1-2.3c-0.2-0.2-0.4-0.2-0.6-0.1c-1.1,0.3-2.2,0.5-3.3,0.8c-0.4,0.1-0.6,0-0.8-0.3
			c-0.6-0.9-1.1-1.7-1.6-2.6c-0.4-0.8-0.8-1.5-1.2-2.3c-0.1-0.3-0.1-0.5,0.1-0.7c0.8-0.8,1.6-1.6,2.4-2.4c0.1-0.1,0.2-0.3,0.2-0.5
			c-0.3-1.8-0.3-3.6,0.1-5.3c0-0.2,0-0.4-0.1-0.5c-0.7-0.8-1.5-1.6-2.3-2.3c-0.3-0.3-0.3-0.5-0.2-0.8c0.8-1.7,1.8-3.4,3-4.9
			c0.2-0.3,0.4-0.3,0.8-0.2c1.1,0.3,2.2,0.6,3.3,0.9c0.2,0,0.4,0,0.5-0.1c1.3-1,2.7-1.7,4.2-2.3c0.2-0.1,0.3-0.2,0.4-0.4
			c0.3-1.1,0.7-2.2,0.9-3.4c0.1-0.3,0.2-0.5,0.6-0.5c0.4,0,0.9-0.1,1.3-0.2c1,0,2.1,0,3.1,0c0.4,0,0.8,0.1,1.2,0.1
			c0.4,0,0.6,0.2,0.7,0.6c0.3,1.1,0.6,2.3,1,3.4c0.1,0.2,0.2,0.4,0.4,0.4c1.5,0.6,2.9,1.3,4.1,2.3c0.1,0.1,0.4,0.2,0.6,0.1
			c1.1-0.3,2.2-0.5,3.3-0.8c0.4-0.1,0.6,0,0.8,0.3c0.4,0.6,0.7,1.1,1.1,1.7c0.6,1.1,1.2,2.1,1.7,3.2c0.2,0.3,0.1,0.5-0.2,0.8
			c-0.8,0.8-1.6,1.6-2.4,2.4c-0.1,0.1-0.1,0.3-0.1,0.4c0.3,1.8,0.3,3.6-0.1,5.3c-0.1,0.3,0,0.4,0.2,0.6c0.8,0.8,1.5,1.6,2.3,2.3
			c0.2,0.2,0.3,0.4,0.2,0.7c-0.2,0.5-0.5,1-0.7,1.5c-0.7,1.1-1.5,2.3-2.2,3.4c-0.2,0.3-0.5,0.4-0.9,0.3c-1.1-0.3-2.2-0.6-3.3-0.9
			c-0.1,0-0.4,0-0.5,0.1c-1.3,1-2.6,1.7-4.2,2.3c-0.2,0.1-0.4,0.3-0.4,0.4c-0.3,1.1-0.6,2.2-0.9,3.3c-0.1,0.3-0.3,0.5-0.6,0.5
			C54.8,113.9,50.9,113.9,50.5,113.9 M52.4,86.8c-5.4,0-9.9,4.3-9.9,9.7c-0.1,5.3,4.4,9.7,9.9,9.7c5.4,0.1,9.9-4.3,9.9-9.6
			C62.3,91.2,57.9,86.8,52.4,86.8z"/>
	</g>
</g>
</svg>
