<?xml version="1.0" encoding="utf-8"?>
<!-- Generator: Adobe Illustrator 19.0.0, SVG Export Plug-In . SVG Version: 6.00 Build 0)  -->
<svg version="1.1" id="Capa_1" xmlns="http://www.w3.org/2000/svg" xmlns:xlink="http://www.w3.org/1999/xlink" x="0px" y="0px"
	 viewBox="0 0 200 200" style="enable-background:new 0 0 200 200;" xml:space="preserve">
<style type="text/css">
	.st0{fill:#2E4E77;}
</style>
<g id="XMLID_423_">
	<g id="XMLID_32_">
		<path id="XMLID_33_" class="st0" d="M167.8,2.7H35.3c-16,0-26.9,18.2-26.9,34.2v132.5c0,16,10.9,26.6,26.9,26.6h132.5
			c15.9,0,25.1-10.6,25.1-26.6V36.9C192.9,20.9,183.8,2.7,167.8,2.7z M157.8,73h-14.1c-9.9,0-12.3-1.1-12.3,5.8v20.5h24l-3,17.6h-21
			v61.5h-26.4v-61.5H87.5V99.3h17.6V76.4c0-20.4,14.3-31.6,32.5-31.6c8.7,0,20.2,0.6,20.2,1V73z"/>
	</g>
</g>
</svg>
